,Name,Genre,Director,Cast,link,budget,release_date,gross,screens,studio,isComedy,isDrama,isThriller,isAction,isRomance,isBiopic,isHorror,isCrime,isPeriod,isWar,isChildren,isPolitical,isSports,isAdult,isMusical,isAdventure,isPatriotic,isSocial,isNoe-noir,isDark,studio_score
0,Monsoon Shootout,Neo-noir,Amit Kumar,"Nawazuddin Siddiqui, Tannishtha Chatterjee, Neeraj Kabi, Sreejita De",https://en.wikipedia.org/wiki/Monsoon_Shootout,120000000,(2017-12-15),9000000,250,Fisson Features|Moving Pictures|Sikhya Entertainment Pvt. Ltd.|Yaffle Films|,0,0,0,0,0,0,0,0,0,0,0,0,0,0,0,0,0,0,1,0,0.0
1,Wazir,Thriller,Bejoy Nambiar,"Amitabh Bachchan, Farhan Akhtar, Aditi Rao Hydari, John Abraham, Neil Nitin Mukesh",https://en.wikipedia.org/wiki/Wazir_(film),360000000,(2016-01-08),558600000,1550,Reliance Entertainment|Vidhu Vinod Chopra Productions|,0,0,1,0,0,0,0,0,0,0,0,0,0,0,0,0,0,0,0,0,0.7307692307692308
2,Chalk n Duster,Drama,Jayant Gilatar,"Shabana Azmi, Juhi Chawla, Divya Dutta, Zarina Wahab, Arya Babbar, Richa Chadha",https://en.wikipedia.org/wiki/Chalk_n_Duster,120000000,(2016-01-15),22200000,450,Surani Pictures|,0,1,0,0,0,0,0,0,0,0,0,0,0,0,0,0,0,0,0,0,0.0
3,Rebellious Flower,Biopic,Krishan Hooda,"Prince Shah, Shashank Singh, Mantra Mugdha, Kirti Adarkar, Bachchan Pachera, Shaneel Sinha",https://en.wikipedia.org/wiki/Rebellious_Flower_(2016),--,15 January 2016,2225000,20,Zenin Productions|,0,0,0,0,0,1,0,0,0,0,0,0,0,0,0,0,0,0,0,0,0.0
4,Airlift,War/thriller,Raja Krishna Menon,"Akshay Kumar, Nimrat Kaur, Purab Kohli, Ferena Wazeir, Gunjan Malhotra",https://en.wikipedia.org/wiki/Airlift_(film),680000000,(2016-01-22),1660300000,1950,Abundantia Entertainment|Cape Of Good Films Pvt. Ltd.|Emmay Entertainment|T-Series|,0,0,1,0,0,0,0,0,0,1,0,0,0,0,0,0,0,0,0,0,0.8345864661654134
5,Jugni,Musical drama,Shefali Bhushan,"Sugandha Garg, Siddhant Behl, Sadhana Singh, Anuritta K Jha, Samir Sharma",https://en.wikipedia.org/wiki/Jugni_(2016_film),--,(2016-01-22),1950000,150,Dhun Productions|,0,1,0,0,0,0,0,0,0,0,0,0,0,0,1,0,0,0,0,0,0.0
6,Kyaa Kool Hain Hum 3,Adult comedy,Umesh Ghadge,"Tushar Kapoor, Aftab Shivdasani, Mandana Karimi, Meghna Naidu, Darshan Jariwala, Krushna Abhishek, Claudia Ciesla, Riteish Deshmukh, Gauhar Khan, Gizele Thakral, VJ Andy, Danny Saru",https://en.wikipedia.org/wiki/Kyaa_Kool_Hain_Hum_3,260000000,22 January 2016,324000000,2050,ALT Entertainment|,1,0,0,0,0,0,0,0,0,0,0,0,0,1,0,0,0,0,0,0,0.5833333333333334
7,Saala Khadoos,Sports,Sudha Kongara Prasad,"R. Madhavan, Ritika Singh",https://en.wikipedia.org/wiki/Saala_Khadoos,200000000,(2016-01-29),149500000,700,Rajkumar Hirani Films|Tricolour Films|UTV Motion Pictures|,0,0,0,0,0,0,0,0,0,0,0,0,1,0,0,0,0,0,0,0,0.4074074074074074
8,Mastizaade,Adult comedy,Milap Milan Zaveri,"Tushar Kapoor, Vir Das, Sunny Leone, Shaad Randhawa, Riteish Deshmukh, Gizele Thakral, Bruna Abdullah",https://en.wikipedia.org/wiki/Mastizaade,300000000,(2016-01-29),247800000,1850,Pritish Nandy Communications|,1,0,0,0,0,0,0,0,0,0,0,0,0,1,0,0,0,0,0,0,0.0
9,Sanam Teri Kasam,Romance,"Radhika Rao, Vinay Sapru","Mawra Hocane, Harshvardhan Rane, Anurag Sinha, Shraddha Das",https://en.wikipedia.org/wiki/Sanam_Teri_Kasam_(2016_film),190000000,(2016-02-05),111900000,950,Eros International|Jhoom Jhoom Productions|Soham Rockstar Entertainment|,0,0,0,0,1,0,0,0,0,0,0,0,0,0,0,0,0,0,0,0,0.358974358974359
10,Ghayal Once Again,Drama/action,Sunny Deol,"Sunny Deol, Soha Ali Khan, Aanchal Munjal, Daina Khan, Shivam Patil, Rishabh Arora, Abhilash Kumar",https://en.wikipedia.org/wiki/Ghayal_Once_Again,500000000,(2016-02-05),376100000,2300,Sunny Super Sound|Vijayta Films|,0,1,0,1,0,0,0,0,0,0,0,0,0,0,0,0,0,0,0,0,0.0
11,Fitoor,Romance/drama,Abhishek Kapoor,"Aditya Roy Kapoor, Katrina Kaif, Tabu, Ajay Devgn, Aditi Rao Hydari, Akshay Oberoi, Lara Dutta, Rahul Bhatt",https://en.wikipedia.org/wiki/Fitoor,710000000,(2016-02-12),234200000,1500,Guy In The Sky Pictures|UTV Motion Pictures|,0,1,0,0,1,0,0,0,0,0,0,0,0,0,0,0,0,0,0,0,0.4074074074074074
12,Sanam Re,Romance,Divya Khosla Kumar,"Pulkit Samrat, Yami Gautam, Urvashi Rautela, Rishi Kapoor, Divya Khosla Kumar, Bharti Singh, Shreyas Pardiwalla",https://en.wikipedia.org/wiki/Sanam_Re,270000000,(2016-02-12),300800000,2000,T-Series|,0,0,0,0,1,0,0,0,0,0,0,0,0,0,0,0,0,0,0,0,0.2631578947368421
13,Direct Ishq,Drama,Rajiv S. Ruia,"Rajneesh Duggal, Nidhi Subbaiah, Arjun Bijlani",https://en.wikipedia.org/wiki/Direct_Ishq,--,(2016-02-19),5600000,325,Baba Motion Pictures Pvt. Ltd.|,0,1,0,0,0,0,0,0,0,0,0,0,0,0,0,0,0,0,0,0,0.0
14,Ishq Forever,Drama,Sameer Sippy,"Krishna Chaturvedi, Ruhi Singh, Javed Jaffrey, Lisa Ray",https://en.wikipedia.org/wiki/Ishq_Forever,--,19 February 2016,2800000,300,Friday Cine Entertainment Pvt. Ltd.|,0,1,0,0,0,0,0,0,0,0,0,0,0,0,0,0,0,0,0,0,0.0
15,LoveShhuda,Romance,Vaibhav Mishra,"Girish Kumar, Navneet Kaur Dhillon, Benaf Dadachandji, Yash Pandit",https://en.wikipedia.org/wiki/Loveshhuda,220000000,(2016-02-19),41200000,900,Galani Entertainments Ltd.|,0,0,0,0,1,0,0,0,0,0,0,0,0,0,0,0,0,0,0,0,0.0
16,Neerja,Biopic/drama,Ram Madhvani,"Sonam Kapoor, Shabana Azmi, Shekhar Ravjiani",https://en.wikipedia.org/wiki/Neerja,280000000,(2016-02-19),903600000,1000,Bling Unplugged|Fox Star Studio India Pvt. Ltd.|,0,1,0,0,0,1,0,0,0,0,0,0,0,0,0,0,0,0,0,0,0.3783783783783784
17,Aligarh,Biopic/drama,Hansal Mehta,"Manoj Bajpayee, Rajkummar Rao",https://en.wikipedia.org/wiki/Aligarh_(film),110000000,(2016-02-26),37400000,450,Eros International|Karima Pictures|,0,1,0,0,0,1,0,0,0,0,0,0,0,0,0,0,0,0,0,0,0.358974358974359
18,Bollywood Diaries,Drama,K.D. Satyam,"Raima Sen, Ashish Vidyarthi, Salim Diwan, Karuna Pandey, Vineet Kumar Singh",https://en.wikipedia.org/wiki/Bollywood_Diaries,--,(2016-02-26),4700000,525,Essel Vision Productions Ltd.|Rehab Pictures Pvt. Ltd.|,0,1,0,0,0,0,0,0,0,0,0,0,0,0,0,0,0,0,0,0,0.0
19,Love Shagun,Romance/comedy,Sandesh Nayak,"Anuj Sachdeva, Nidhi Subbaiah, Manit Joura",https://en.wikipedia.org/wiki/Love_Shagun,--,(2016-02-26),1200000,100,Saanvi Pictures Pvt. Ltd.|,1,0,0,0,1,0,0,0,0,0,0,0,0,0,0,0,0,0,0,0,0.0
20,Tere Bin Laden: Dead or Alive,Comedy,Abhishek Sharma,"Manish Paul, Sikander Kher, Pradhuman Singh, Ali Zafar, Sugandha Ram",https://en.wikipedia.org/wiki/Tere_Bin_Laden:_Dead_or_Alive,130000000,(2016-02-26),47150000,850,Walkwater Media Ltd.|,1,0,0,0,0,0,0,0,0,0,0,0,0,0,0,0,0,0,0,0,0.0
21,Zubaan,Drama,Mozez Singh,"Vicky Kaushal, Sarah Jane Dias, Raghav Chanana",https://en.wikipedia.org/wiki/Zubaan,80000000,(2016-03-04),5200000,350,Metamozez Entertainment|Sikhya Entertainment Pvt. Ltd.|Wave Cinemas|,0,1,0,0,0,0,0,0,0,0,0,0,0,0,0,0,0,0,0,0,0.0
22,Jai Gangaajal,Action/drama,Prakash Jha,"Priyanka Chopra, Anuj Aggarwal, Prakash Jha, Rahul Bhatt",https://en.wikipedia.org/wiki/Jai_Gangaajal,330000000,(2016-03-04),450700000,2500,Play Entertainment|Prakash Jha Productions|,0,1,0,1,0,0,0,0,0,0,0,0,0,0,0,0,0,0,0,0,0.26666666666666666
23,Global Baba,Satire,Manoj Sidheshwari Tewari,"Abhimanyu Singh, Sandeepa Dhar, Ravi Kishan, Pankaj Tripathi, Sanjay Mishra, Akhilendra Mishra",https://en.wikipedia.org/wiki/Global_Baba,--,11 March 2016.,950000,125,Vijay Arts|,0,0,0,0,0,0,0,0,0,0,0,0,0,0,0,0,0,0,0,0,0.0
24,Teraa Surroor,Action/romance/thriller,Shawn Arranha,"Himesh Reshammiya, Farah Karimi, Monica Dogra, Naseeruddin Shah, Shekhar Kapur",https://en.wikipedia.org/wiki/Teraa_Surroor,150000000,(2016-03-11),85400000,1150,HR Musik|T-Series|,0,0,1,1,1,0,0,0,0,0,0,0,0,0,0,0,0,0,0,0,0.2631578947368421
25,OK Mein Dhokhe,Drama/thriller,Utpal S. Chaudhary,"Zoya Rathore, Sapan Krishna, Vaidhei Singh, Megha Verma, Ravi Thakur, Milan Singh",https://en.wikipedia.org/wiki/OK_Mein_Dhokhe,130000000,(2016-03-18),194700000,975,Soham Rockstar Entertainment|Soundrya Productions|,0,1,1,0,0,0,0,0,0,0,0,0,0,0,0,0,0,0,0,0,0.0
26,Kapoor & Sons,Drama/comedy,Shakun Batra,"Sidharth Malhotra, Alia Bhatt, Fawad Khan, Rishi Kapoor",https://en.wikipedia.org/wiki/Kapoor_%26_Sons,380000000,(2016-03-18),962700000,1500,Dharma Productions Pvt. Ltd.|Fox Star Studio India Pvt. Ltd.|,1,1,0,0,0,0,0,0,0,0,0,0,0,0,0,0,0,0,0,0,1.0548489666136724
27,Rocky Handsome,Action,Nishikant Kamat,"John Abraham, Shruti Haasan, Nathalia Kaur",https://en.wikipedia.org/wiki/Rocky_Handsome,430000000,(2016-03-25),306700000,1900,Azure Entertainment|JA Entertainment Pvt. Ltd.|,0,0,0,1,0,0,0,0,0,0,0,0,0,0,0,0,0,0,0,0,0.0
28,Ki & Ka,Romance/comedy,R. Balki,"Kareena Kapoor, Arjun Kapoor, Amitabh Bachchan, Jaya Bachchan",https://en.wikipedia.org/wiki/Ki_%26_Ka,350000000,(2016-04-01),713700000,1600,Eros International|Hope Productions Pvt. Ltd.|,1,0,0,0,1,0,0,0,0,0,0,0,0,0,0,0,0,0,0,0,0.9589743589743589
29,Love Games,Thriller,Vikram Bhatt,"Patralekha, Tara Alisha Berry, Gaurav Arora",https://en.wikipedia.org/wiki/Love_Games_(film),100000000,(2016-04-08),43380000,1100,T-Series|Vishesh Films Pvt. Ltd.|,0,0,1,0,0,0,0,0,0,0,0,0,0,0,0,0,0,0,0,0,0.604066985645933
30,The Blueberry Hunt,Thriller,Anup Kurien,"Naseeruddin Shah, Vipin Sharma, Vinay Forrt",https://en.wikipedia.org/wiki/The_Blueberry_Hunt,--,(2016-04-08),415000,20,Visual Possibilty Inc.|,0,0,1,0,0,0,0,0,0,0,0,0,0,0,0,0,0,0,0,0,0.0
31,Fan,Action/drama/thriller,Maneesh Sharma,"Shah Rukh Khan, Waluscha de Sousa, Sayani Gupta, Shriya Pilgaonkar",https://en.wikipedia.org/wiki/Fan_(film),1200000000,(2016-04-15),1169700000,3450,Yash Raj Films|,0,1,1,1,0,0,0,0,0,0,0,0,0,0,0,0,0,0,0,0,0.5636363636363636
32,Nil Battey Sannata,Comedy/drama,Ashwini Iyer Tiwari,"Swara Bhaskar, Ratna Pathak, Pankaj Tripathi, Sanjay Suri",https://en.wikipedia.org/wiki/Nil_Battey_Sannata,1200000000,(2016-04-22),1169700000,3450,Yash Raj Films|,1,1,0,0,0,0,0,0,0,0,0,0,0,0,0,0,0,0,0,0,0.5636363636363636
33,Laal Rang,Action,Syed Ahmad Afzal,"Randeep Hooda, Akshay Oberoi, Rajneesh Duggal, Piaa Bajpai",https://en.wikipedia.org/wiki/Laal_Rang,100000000,(2016-04-22),26800000,825,Kriex Global Vision Ltd.|,0,0,0,1,0,0,0,0,0,0,0,0,0,0,0,0,0,0,0,0,0.0
34,Santa Banta Pvt Ltd,Comedy,Akashdeep Sabir,"Vir Das, Boman Irani, Ram Kapoor, Neha Dhupia, Lisa Haydon",https://en.wikipedia.org/wiki/Santa_Banta_Pvt_Ltd,95000000,(2016-04-22),12500000,550,Cinetek Telefilms Pvt. Ltd|Viacom 18 Motion Pictures|,1,0,0,0,0,0,0,0,0,0,0,0,0,0,0,0,0,0,0,0,0.2916666666666667
35,Baaghi,Action,Sabbir Khan,"Tiger Shroff, Shraddha Kapoor, Sudheer Babu, Sunil Grover",https://en.wikipedia.org/wiki/Baaghi_(2016_film),370000000,(2016-04-29),1059400000,2750,Nadiadwala Grandson Entertainment|UTV Motion Pictures|,0,0,0,1,0,0,0,0,0,0,0,0,0,0,0,0,0,0,0,0,1.1801346801346801
36,Shortcut Safari,"Adventure, drama",Amitabha Singh,"Jimmy Shergill, Aashi Rawal, Sharvil Patel, Mann Patel, Ugam Khetani, Stuti Dwivedi, Deah Tandon, Hardil Kanaba",https://en.wikipedia.org/wiki/Shortcut_Safari,--,(2016-04-29),625000,40,Amigos Fin-O-Tainment Pvt. Ltd.|Xebec Films Pvt. Ltd.|,0,1,0,0,0,0,0,0,0,0,0,0,0,0,0,1,0,0,0,0,0.0
37,One Night Stand,Thriller,Jasmine Moses D'Souza,"Sunny Leone, Tanuj Virwani, Nyra Banerjee",https://en.wikipedia.org/wiki/One_Night_Stand_(2016_film),170000000,(2016-05-06),48000000,1050,Swiss Entertainment Pvt. Ltd.|,0,0,1,0,0,0,0,0,0,0,0,0,0,0,0,0,0,0,0,0,0.0
38,Traffic,Thriller,Rajesh Pillai,"Manoj Bajpayee, Jimmy Shergill, Divya Dutta, Kitu Gidwani, Prosenjit Chatterjee, Sachin Khedekar, Nikita Thukral, Vishal Singh, Parambrata Chatterjee",https://en.wikipedia.org/wiki/Traffic_(2016_film),90000000,(2016-05-06),50600000,500,Endemol India|Eyedentity Motion Pictures|Fox Star Studio India Pvt. Ltd.|,0,0,1,0,0,0,0,0,0,0,0,0,0,0,0,0,0,0,0,0,0.3783783783783784
39,1920 London,Horror,Tinu Suresh Desai,"Sharman Joshi, Meera Chopra, Vishal Karwal",https://en.wikipedia.org/wiki/1920_London,210000000,(2016-05-06),214100000,1300,Reliance Entertainment|,0,0,0,0,0,0,1,0,0,0,0,0,0,0,0,0,0,0,0,0,0.23076923076923078
40,Azhar,Biopic,Tony D'Souza,"Emraan Hashmi, Nargis Fakhri, Prachi Desai, Gautam Gulati, Kunaal Roy Kapur, Lara Dutta, Karanvir Sharma",https://en.wikipedia.org/wiki/Azhar_(film),400000000,(2016-05-13),427300000,2100,Balaji Motion Pictures|Sony Pictures Network|,0,0,0,0,0,1,0,0,0,0,0,0,0,0,0,0,0,0,0,0,0.4230769230769231
41,Buddha in a Traffic Jam,Political drama,Vivek Agnihotri,"Arunoday Singh, Mahie Gill, Anchal Dwivedi, Pallavi Joshi, Anupam Kher",https://en.wikipedia.org/wiki/Buddha_in_a_Traffic_Jam,--,(2016-05-13),4000000,125,Dream Cube|Friday Night Productions|Phoenix Multidimensions|SP Cinecorp|Vivek Agnihotri Creates|,0,1,0,0,0,0,0,0,0,0,0,1,0,0,0,0,0,0,0,0,0.0
42,Khel Toh Ab Shuru Hoga,Action,Kunal V Singh,"Ruslaan Mumtaz, Devshi Khanduri",https://en.wikipedia.org/wiki/Khel_Toh_Ab_Shuru_Hoga,--,(2016-05-13),525000,25,GMD Films|,0,0,0,1,0,0,0,0,0,0,0,0,0,0,0,0,0,0,0,0,0.0
43,Dear Dad,Drama,Tanuj Bhramar,"Arvind Swamy, Himanshu Sharma, Ekavali Khanna",https://en.wikipedia.org/wiki/Dear_Dad_(film),--,(2016-05-13),2200000,100,Peppermint Studio|,0,1,0,0,0,0,0,0,0,0,0,0,0,0,0,0,0,0,0,0,0.0
44,Kaptaan,Comedy,Mandeep Kumar,"Gippy Grewal, Karishma Kotak, Rishaan Dutta",https://en.wikipedia.org/wiki/Kaptaan,640000000,(2016-05-20),834000000,2150,Yash Raj Films|,1,0,0,0,0,0,0,0,0,0,0,0,0,0,0,0,0,0,0,0,0.5636363636363636
45,Sarbjit,Biopic,Omung Kumar,"Aishwarya Rai, Randeep Hooda, Richa Chadha",https://en.wikipedia.org/wiki/Sarbjit_(film),320000000,(2016-05-20),337100000,1400,Legend Studios|Puja Entertainment Ltd.|T-Series|,0,0,0,0,0,1,0,0,0,0,0,0,0,0,0,0,0,0,0,0,0.44834307992202727
46,Phobia,Thriller,Pawan Kripalani,"Radhika Apte, Satyadeep Misra",https://en.wikipedia.org/wiki/Phobia_(2016_film),85000000,(2016-05-27),52900000,625,Eros International|Next Gen Films|,0,0,1,0,0,0,0,0,0,0,0,0,0,0,0,0,0,0,0,0,0.358974358974359
47,Veerappan,Action,Ram Gopal Varma,"Sandeep Bharadwaj, Lisa Ray, Sachiin Joshi, Zarine Khan, Usha Jadhav",https://en.wikipedia.org/wiki/Veerappan_(2016_film),140000000,(2016-05-27),90300000,1200,Viking Media & Entertainment|,0,0,0,1,0,0,0,0,0,0,0,0,0,0,0,0,0,0,0,0,0.0
48,Fredrick,Action/psychological thriller,Rajesh Butalia,"Prashant Narayanan, Avinash Dhyani, KK,",https://en.wikipedia.org/wiki/Fredrick_(2016_film),--,(2016-05-27),1550000,100,Evana Entertainment Pvt. Ltd.|,0,0,1,1,0,0,0,0,0,0,0,0,0,0,0,0,0,0,0,0,0.0
49,Waiting,Drama,Anu Menon,"Naseeruddin Shah, Kalki Koechlin, Arjun Mathur, Rajat Kapoor, Suhasini Maniratnam",https://en.wikipedia.org/wiki/Waiting_(2016_film),65000000,(2016-05-27),37000000,275,Drishyam Films|Ishka Films|,0,1,0,0,0,0,0,0,0,0,0,0,0,0,0,0,0,0,0,0,0.0
50,Housefull 3,Comedy,Sajid-Farhad,"Akshay Kumar, Abhishek Bachchan, Riteish Deshmukh, Jacqueline Fernandez, Lisa Haydon, Nargis Fakhri, Nikitin Dheer",https://en.wikipedia.org/wiki/Housefull_3,970000000,(2016-06-03),1505500000,3650,Eros International|Nadiadwala Grandson Entertainment|,1,0,0,0,0,0,0,0,0,0,0,0,0,0,0,0,0,0,0,0,1.1317016317016317
51,Do Lafzon Ki Kahani,Romantic,Deepak Tijori,"Randeep Hooda, Kajal Aggarwal",https://en.wikipedia.org/wiki/Do_Lafzon_Ki_Kahani_(film),110000000,(2016-06-10),40900000,600,Dhiraj Motion Pictures Pvt. Ltd.|Focus Motion Pictures|Pen India Pvt. Ltd.|Tijori Entertainment|,0,0,0,0,0,0,0,0,0,0,0,0,0,0,0,0,0,0,0,0,0.0
52,Dhanak,Drama,Nagesh Kukunoor,"Hetal Gadda, Krrish Chabbria, Vipin Sharma, Vibha Chibber, Vijay Maurya",https://en.wikipedia.org/wiki/Dhanak,--,(2016-06-17),26500000,350,Drishyam Films|Kukunoor Movies|,0,1,0,0,0,0,0,0,0,0,0,0,0,0,0,0,0,0,0,0,0.0
53,Te3n,Thriller,Ribhu Dasgupta,"Amitabh Bachchan, Vidya Balan, Nawazuddin Siddiqui",https://en.wikipedia.org/wiki/Te3n,340000000,(2016-06-10),261600000,1150,Blue Waters Motion Pictures|Cinemaa Pictures LLP|Endemol India|Kross Pictures|Reliance Entertainment|,0,0,1,0,0,0,0,0,0,0,0,0,0,0,0,0,0,0,0,0,0.23076923076923078
54,Udta Punjab,Crime,Abhishek Chaubey,"Shahid Kapoor, Alia Bhatt, Kareena Kapoor, Diljit Dosanjh",https://en.wikipedia.org/wiki/Udta_Punjab,470000000,(2016-06-17),800000000,2200,Balaji Motion Pictures|Phantom Films|,0,0,0,0,0,0,0,1,0,0,0,0,0,0,0,0,0,0,0,0,0.7087912087912087
55,Luv U Alia,Romance,Indrajit Lankesh,"Bhumika Chawla, V. Ravichandran, Sudeep, Sunny Leone, Chandan Kumar, Sangeeta Chauhan",https://en.wikipedia.org/wiki/Luv_U_Alia,57500000,(2016-06-17),1700000,100,Harvey India Productions|Odyssey Corporation Ltd.|,0,0,0,0,1,0,0,0,0,0,0,0,0,0,0,0,0,0,0,0,0.0
56,Raman Raghav 2.0,Crime/thriller,Anurag Kashyap,"Nawazuddin Siddiqui, Vicky Kaushal, Sobhita Dhulipala",https://en.wikipedia.org/wiki/Raman_Raghav_2.0,100000000,(2016-06-24),94200000,700,Phantom Films|Reliance Entertainment|,0,0,1,0,0,0,0,1,0,0,0,0,0,0,0,0,0,0,0,0,0.5164835164835164
57,Junooniyat,Romance,Vivek Agnihotri,"Pulkit Samrat, Yami Gautam, Gulshan Devaiah, Hrishita Bhatt",https://en.wikipedia.org/wiki/Junooniyat,120000000,(2016-06-24),51300000,800,T-Series|,0,0,0,0,1,0,0,0,0,0,0,0,0,0,0,0,0,0,0,0,0.2631578947368421
58,7 Hours To Go,Crime/thriller,Saurabh Varma,"Shiv Pandit, Sandeepa Dhar, Natasa Stankovic, Varun Badola",https://en.wikipedia.org/wiki/7_Hours_to_Go,--,(2016-06-24),7600000,475,Krian Pictures|,0,0,1,0,0,0,0,1,0,0,0,0,0,0,0,0,0,0,0,0,0.0
59,Rough Book,Drama,Ananth Narayan Mahadevan,"Amaan Khan, Tannishtha Chatterjee",https://en.wikipedia.org/wiki/Rough_Book,--,0,975000,1,Aerika Cine Works|,0,1,0,0,0,0,0,0,0,0,0,0,0,0,0,0,0,0,0,0,0.0
60,Shorgul,Political/drama,"Pranav Kumar Singh, Jitendra Tiwari","Jimmy Shergill, Suha Gezen, Ashutosh Rana, Narendra Jha",https://en.wikipedia.org/wiki/Shorgul,--,1 July 2016,12400000,600,24 FPS Films Production|,0,1,0,0,0,0,0,0,0,0,0,1,0,0,0,0,0,0,0,0,0.0
61,Dil Toh Deewana Hai,Comedy/romance,Raja Bundela,"Haider Khan, Sadha, Raj Babbar, Zeenat Aman, Sushmita Mukherjee, Alok Nath, Hemant Pandey",https://en.wikipedia.org/wiki/Dil_Toh_Deewana_Hai,--,(2016-07-01),225000,5,D.S. Production Pvt. Ltd.|,1,0,0,0,1,0,0,0,0,0,0,0,0,0,0,0,0,0,0,0,0.0
62,Sultan,Sports/drama,Ali Abbas Zafar,"Salman Khan, Anushka Sharma, Randeep Hooda, Amit Sadh",https://en.wikipedia.org/wiki/Sultan_(2016_film),1450000000,(2016-07-06),4141400000,4350,Yash Raj Films|,0,1,0,0,0,0,0,0,0,0,0,0,1,0,0,0,0,0,0,0,0.5636363636363636
63,Brahman Naman,Comedy,Qaushiq Mukherjee,"Shashank Arora, Sid Mallya, Denzil Smith, Biswa Kalyan Rath, Tanmay Dhananiya, Vaishwath Shankar",https://en.wikipedia.org/wiki/Brahman_Naman,1200000000,(2016-01-24),1169700000,3450,Yash Raj Films|,1,0,0,0,0,0,0,0,0,0,0,0,0,0,0,0,0,0,0,0,0.5636363636363636
64,Great Grand Masti,Comedy,Indra Kumar,"Vivek Oberoi, Riteish Deshmukh, Aftab Shivdasani, Urvashi Rautela, Shraddha Das, Mishti, Pooja Bose, Sonali Raut, Shreyas Talpade",https://en.wikipedia.org/wiki/Great_Grand_Masti,390000000,(2016-07-15),198900000,1700,ALT Entertainment|Maruti International|Shri Adhikari Brothers|,1,0,0,0,0,0,0,0,0,0,0,0,0,0,0,0,0,0,0,0,1.0378787878787878
65,Madaari,Drama,Nishikant Kamat,"Irrfan Khan, Jimmy Sheirgill",https://en.wikipedia.org/wiki/Madaari,--,(2016-07-22),247100000,975,Dore Films|Easemytrip.com|Miraj Entertainment Ltd.|Paramhans Creations|Saptrishi Cinevision|,0,1,0,0,0,0,0,0,0,0,0,0,0,0,0,0,0,0,0,0,0.0
66,Ishq Click,Romance/drama,Anil Ballani,"Adhyayan Suman, Sara Loren",https://en.wikipedia.org/wiki/Ishq_Click,--,(2016-07-22),2000000,125,Algol Films|,0,1,0,0,1,0,0,0,0,0,0,0,0,0,0,0,0,0,0,0,0.0
67,M Cream,Road movie,Agneya Singh,"Imaad Shah, Ira Dubey, [[Raghav Chana",https://en.wikipedia.org/wiki/M_Cream,--,(2016-07-22),2325000,25,Agniputra Films|,0,0,0,0,0,0,0,0,0,0,0,0,0,0,0,0,0,0,0,0,0.0
68,Kabali,Action,Pa. Ranjith,"Rajinikanth,Winston Chao, Radhika Apte",https://en.wikipedia.org/wiki/Kabali_(film),1200000000,(2016-07-22),1169700000,3450,Yash Raj Films|,0,0,0,1,0,0,0,0,0,0,0,0,0,0,0,0,0,0,0,0,0.5636363636363636
69,Dishoom,Action,Rohit Dhawan,"John Abraham, Varun Dhawan, Jacqueline Fernandez, Saqib Saleem, Ram Kapoor, Nargis Fakhri, Akshaye Khanna",https://en.wikipedia.org/wiki/Dishoom,610000000,(2016-07-28),947100000,3000,Eros International|Nadiadwala Grandson Entertainment|,0,0,0,1,0,0,0,0,0,0,0,0,0,0,0,0,0,0,0,0,1.1317016317016317
70,The Legend of Michael Mishra,Romance/drama,Manish Jha,"Arshad Warsi, Aditi Rao Hydari, Boman Irani, Kayoze Irani",https://en.wikipedia.org/wiki/The_Legend_of_Michael_Mishra,--,(2016-08-05),13000000,625,Eyecandy Films|Wave Cinemas|,0,1,0,0,1,0,0,0,0,0,0,0,0,0,0,0,0,0,0,0,0.0
71,Fever,Thriller,Rajeev Jhaveri,"Rajeev Khandelwal, Gauhar Khan, Gemma Atkinson, Victor Banerjee, Caterina Murino, Ankita Makwana",https://en.wikipedia.org/wiki/Fever_(2016_film),--,(2016-08-05),15300000,450,ICM Entertainment Pvt. Ltd.|Jaya Sapthagiri Productions|Niche Film Farm|Plus Entertainment Pvt. Ltd.|,0,0,1,0,0,0,0,0,0,0,0,0,0,0,0,0,0,0,0,0,0.0
72,Hai Apna Dil Toh Awara,Comedy/romance,Monjoy Mukerji,Sahil Anand,https://en.wikipedia.org/wiki/Hai_Apna_Dil_Toh_Awara,--,(2016-08-05),915000,100,Monjoy Joy Mukerji Productions|,1,0,0,0,1,0,0,0,0,0,0,0,0,0,0,0,0,0,0,0,0.0
73,Mohenjo Daro,Drama,Ashutosh Gowariker,"Hrithik Roshan, Pooja Hegde, Kabir Bedi, Arunoday Singh, Sharad Kelkar",https://en.wikipedia.org/wiki/Mohenjo_Daro_(film),1380000000,(2016-08-12),749300000,2700,Ashutosh Gowariker Productions|UTV Motion Pictures|,0,1,0,0,0,0,0,0,0,0,0,0,0,0,0,0,0,0,0,0,0.4074074074074074
74,Rustom,Romance/thriller,Tinu Suresh Desai,"Akshay Kumar, Ileana D'Cruz, Esha Gupta, Arjan Bajwa",https://en.wikipedia.org/wiki/Rustom_(film),730000000,(2016-08-12),1730700000,2350,Cape Of Good Films Pvt. Ltd.|Essel Vision Productions Ltd.|KriArj Entertainment|Plan C Studio|,0,0,1,0,1,0,0,0,0,0,0,0,0,0,0,0,0,0,0,0,0.5714285714285714
75,Happy Bhaag Jayegi,Comedy,Mudassar Aziz,"Abhay Deol, Diana Penty, Momal Sheikh, Ali Fazal, Jimmy Shergill",https://en.wikipedia.org/wiki/Happy_Bhaag_Jayegi,200000000,19 August 2016,391500000,1000,Colour Yellow Picture Ltd.|Eros International|,1,0,0,0,0,0,0,0,0,0,0,0,0,0,0,0,0,0,0,0,1.0732600732600732
76,Waarrior Savitri,Action,Param Gill,"Niharica Raizada, Lucy Pinder, Rajat Barmecha",https://en.wikipedia.org/wiki/Waarrior_Savitri,--,(2016-08-25),1275000,150,Dr. Bob's Production|Jai Viratra Entertainment|,0,0,0,1,0,0,0,0,0,0,0,0,0,0,0,0,0,0,0,0,0.0
77,A Flying Jatt,Action/comedy,Remo D'Souza,"Tiger Shroff, Jacqueline Fernandez, Nathan Jones, Kay Kay Menon, Amrita Singh, Shraddha Kapoor",https://en.wikipedia.org/wiki/A_Flying_Jatt,550000000,(2016-08-25),427800000,2650,Balaji Motion Pictures|,1,0,0,1,0,0,0,0,0,0,0,0,0,0,0,0,0,0,0,0,0.4230769230769231
78,Akira,Action/drama,A.R. Murugadoss,"Sonakshi Sinha, Konkona Sen Sharma, Raai Laxmi, Amit Sadh, Anurag Kashyap, Atul Kulkarni",https://en.wikipedia.org/wiki/Akira_(2016_Hindi_film),320000000,(2016-09-02),365700000,2400,A.R. Murugadoss Production|Fox Star Studio India Pvt. Ltd.|,0,1,0,1,0,0,0,0,0,0,0,0,0,0,0,0,0,0,0,0,0.3783783783783784
79,Yea Toh Two Much Ho Gayaa,Action/drama,Anwer Khan,"Arbaaz Khan, Jimmy Shergill, Pooja Chopra, Bruna Abdullah, Devansh Sharma",https://en.wikipedia.org/wiki/Yea_Toh_Two_Much_Ho_Gayaa,--,(2016-09-02),4400000,225,M.A. Entertainment|Trinity Films|,0,1,0,1,0,0,0,0,0,0,0,0,0,0,0,0,0,0,0,0,0.0
80,Island City,Drama,Ruchika Oberoi,"Tannishtha Chatterjee, Ashwin Mushran, Vinay Pathak, Amruta Subhash",https://en.wikipedia.org/wiki/Island_City_(2015_film),--,(2016-09-02),2025000,65,Drishyam Films|NFDC|,0,1,0,0,0,0,0,0,0,0,0,0,0,0,0,0,0,0,0,0,0.0
81,Baar Baar Dekho,Romance/drama,Nitya Mehra,"Katrina Kaif, Sidharth Malhotra, Ram Kapoor, Taaha Shah, Sarika, Sayani Gupta",https://en.wikipedia.org/wiki/Baar_Baar_Dekho,530000000,(2016-09-09),423700000,1950,Dharma Productions Pvt. Ltd.|Eros International|Excel Entertainment|,0,1,0,0,1,0,0,0,0,0,0,0,0,0,0,0,0,0,0,0,1.5910005027652088
82,Freaky Ali,"Romantic, comedy, sports",Sohail Khan,"Nawazuddin Siddiqui, Arbaaz Khan, Amy Jackson, Jas Arora, Seema Biswas, Nikitin Dheer, Asif Basra, Paresh Ganatra, Alam Khan",https://en.wikipedia.org/wiki/Freaky_Ali,230000000,(2016-09-09),187000000,1200,Sohail Khan Productions|,1,0,0,0,0,0,0,0,0,0,0,0,1,0,0,0,0,0,0,0,0.4
83,Ek Kahani Julie Ki,Thriller,Aziz Zee,Rakhi Sawant,https://en.wikipedia.org/wiki/Ek_Kahani_Julie_Ki,--,0,1200000,100,Chetna Entertainment|,0,0,1,0,0,0,0,0,0,0,0,0,0,0,0,0,0,0,0,0,0.0
84,Raaz Reboot,Horror,Vikram Bhatt,"Emraan Hashmi, Kriti Kharbanda, Gaurav Arora, Suzanna Mukherjee",https://en.wikipedia.org/wiki/Raaz_Reboot,310000000,(2016-09-16),346200000,1700,T-Series|Vishesh Films Pvt. Ltd.|,0,0,0,0,0,0,1,0,0,0,0,0,0,0,0,0,0,0,0,0,0.604066985645933
85,Pink,Drama,Aniruddha Roy Chowdhury,"Amitabh Bachchan, Taapsee Pannu, Kirti Kulhari, Andrea Tariang, Angad Bedi",https://en.wikipedia.org/wiki/Pink_(2016_film),290000000,(2016-09-16),903500000,1000,Rashmi Sharma Films|Rising Suns Films Pvt. Ltd.|Saraswati Entertainment|,0,1,0,0,0,0,0,0,0,0,0,0,0,0,0,0,0,0,0,0,0.8
86,Parched,Drama,Leena Yadav,"Tannishtha Chatterjee, Radhika Apte, Surveen Chawla, Sayani Gupta",https://en.wikipedia.org/wiki/Parched,240000000,(2016-09-23),19800000,275,Ajay Devgn Films|Blue Waters Motion Pictures|Shivalaya Entertainment|,0,1,0,0,0,0,0,0,0,0,0,0,0,0,0,0,0,0,0,0,0.5
87,Banjo,Comedy/drama,Ravi Jadhav,"Riteish Deshmukh, Nargis Fakhri , Dharmesh Yelande ,",https://en.wikipedia.org/wiki/Banjo_(2016_film),--,(2016-09-23),113100000,1350,Eros International|,1,1,0,0,0,0,0,0,0,0,0,0,0,0,0,0,0,0,0,0,0.358974358974359
88,Days of Tafree,Comedy,Krishnadev Yagnik,"Yash Soni, Nimisha Mehta",https://en.wikipedia.org/wiki/Days_of_Tafree,--,(2016-09-23),33300000,450,Anand Pandit Motion Pictures|Rashmi Sharma Films|,1,0,0,0,0,0,0,0,0,0,0,0,0,0,0,0,0,0,0,0,0.0
89,Wah Taj,Satirical,Ajit Sinha,"Shreyas Talpade, Manjari Phadnis, Hemant Pandey, Rajesh Sharma, Rajeev Verma",https://en.wikipedia.org/wiki/Wah_Taj,--,(2016-09-23),1925000,150,Pen India Pvt. Ltd.|Pun Films Pvt. Ltd.|Spyderwave Films|,0,0,0,0,0,0,0,0,0,0,0,0,0,0,0,0,0,0,0,0,0.0
90,M.S. Dhoni: The Untold Story,Sports/biopic,Neeraj Pandey,"Sushant Singh Rajput, Anupam Kher, Herry Tangri, Kiara Advani, Disha Patani, Bhumika Chawla",https://en.wikipedia.org/wiki/M.S._Dhoni:_The_Untold_Story,1100000000,(2016-09-30),1573200000,3900,Fox Star Studio India Pvt. Ltd.|Friday Filmworks Pvt. Ltd.|Inspired Entertainment|,0,0,0,0,0,1,0,0,0,0,0,0,1,0,0,0,0,0,0,0,0.8783783783783784
91,Mirzya,Drama/romance,Rakeysh Omprakash Mehra,"Harshvardhan Kapoor, Saiyami Kher, Om Puri, Art Malik, K.K. Raina",https://en.wikipedia.org/wiki/Mirzya_(film),630000000,(2016-10-07),109300000,1750,Cinestaan Film Company|Rakesh Omprakash Mehra Pictures|,0,1,0,0,1,0,0,0,0,0,0,0,0,0,0,0,0,0,0,0,0.0
92,MSG: The Warrior Lion Heart,Adventure/drama,"Gurmeet Ram Rahim Singh, Honeypreet Insan","Gurmeet Ram Rahim Singh, Honeypreet Insan, Charapreet Insan, Kainaat Insan, Garima Insan, Rajesh Insan, Sukhottam Insan, Ashok Insan, Bhushan Insan",https://en.wikipedia.org/wiki/MSG:_The_Warrior_Lion_Heart,180000000,(2016-10-07),176000000,450,Hakikat Entertainment Pvt. Ltd.|,0,1,0,0,0,0,0,0,0,0,0,0,0,0,0,1,0,0,0,0,0.0
93,Tutak Tutak Tutiya,Supernatural comedy,A. L. Vijay,"Prabhu Deva, Tamannaah, Sonu Sood",https://en.wikipedia.org/wiki/Tutak_Tutak_Tutiya,110000000,(2016-10-07),65400000,875,Puja Entertainment Ltd.|Shakti Sagar Productions|,1,0,0,0,0,0,0,0,0,0,0,0,0,0,0,0,0,0,0,0,0.18518518518518517
94,Anna,Biographical,Shashank Udapurkar,"Shashank Udapurkar, Tanishaa Mukerji, Govind Namdeo, Rajit Kapur, Sharat Saxena, Kishor Kadam",https://en.wikipedia.org/wiki/Anna_(2016_film),--,(2016-10-14),2350000,350,The Rise Pictures Pvt. Ltd.|,0,0,0,0,0,0,0,0,0,0,0,0,0,0,0,0,0,0,0,0,0.0
95,Motu Patlu: King Of Kings,"Action, comedy, adventure, animation",Suhas D. Kadavand,"Saurav Chakraborty, Omi Sharma",https://en.wikipedia.org/wiki/Motu_Patlu:_King_Of_Kings,42500000,(2016-10-14),61700000,475,Cosmos Entertainment |Maya Digital Studios|Viacom 18 Motion Pictures|,1,0,0,1,0,0,0,0,0,0,0,0,0,0,0,1,0,0,0,0,0.2916666666666667
96,Beiimaan Love,Thriller,Rajeev Chaudhary,"Sunny Leone, Rajneesh Duggal,Daniel Weber",https://en.wikipedia.org/wiki/Beiimaan_Love,--,(2016-10-14),31100000,925,Avanti Films Pvt. Ltd.|Crystal Films|,0,0,1,0,0,0,0,0,0,0,0,0,0,0,0,0,0,0,0,0,0.0
97,Saat Uchakkey,Comedy,Sanjeev Sharma,"Manoj Bajpayee, Anupam Kher, Kay Kay Menon, Annu Kapoor, Vijay Raaz, Aditi Sharma",https://en.wikipedia.org/wiki/Saat_Uchakkey,--,(2016-10-14),33500000,800,Crouching Tiger Motion Pictures|Friday Filmworks Pvt. Ltd.|Wave Cinemas|,1,0,0,0,0,0,0,0,0,0,0,0,0,0,0,0,0,0,0,0,0.5
98,Fuddu,Drama,Sunil Subramani,"Swati Kapoor, Monali A, Sunny Leone, Sharman Joshi, Gauhar Khan, Pawan Kumar Sharma, Anurag Basu",https://en.wikipedia.org/wiki/Fuddu,--,(2016-10-14),2500000,125,Mahima Productions|Paradiso Productions|Viamonk Motion Pictures|,0,1,0,0,0,0,0,0,0,0,0,0,0,0,0,0,0,0,0,0,0.0
99,Ek Tera Saath,Supernatural thriller,Arshad Siddiqui,"Sharad Malhotra, Hritu Dudani, Melanie Nazareth, Vishwajeet Pradhan, Deepraj Rana, Gargi Patel, Aprajita Mahajan, Anubhav Dhir",https://en.wikipedia.org/wiki/Ek_Tera_Saath,--,(2016-10-21),9400000,450,Baba Motion Pictures Pvt. Ltd.|Eyefaa Studio|,0,0,1,0,0,0,0,0,0,0,0,0,0,0,0,0,0,0,0,0,0.0
100,Umrika,Drama,Prashant Nair,"Prateik Babbar, Suraj Sharma, Tony Revolori, Adil Hussain, Nidhi Bisht",https://en.wikipedia.org/wiki/Umrika,--,(2015-01-24),105000,5,Samosa Stories Pvt. Ltd.|,0,1,0,0,0,0,0,0,0,0,0,0,0,0,0,0,0,0,0,0,0.0
101,31st October,"Drama, thriller",Shivaji Lotan Patil,"Vir Das, Soha Ali Khan",https://en.wikipedia.org/wiki/31st_October_(film),--,(2016-10-21),13800000,600,Magic Pictures & Entertainment|,0,1,1,0,0,0,0,0,0,0,0,0,0,0,0,0,0,0,0,0,0.0
102,Shivaay,Action/drama,Ajay Devgn,"Ajay Devgn, Sayesha Saigal, Erika Kaar, Ali Kazmi, Jabbz Farooqi, Vir Das, Bijou Thaangjam",https://en.wikipedia.org/wiki/Shivaay,1030000000,(2016-10-28),1117300000,2950,Ajay Devgn Films|NH Studioz|Pen India Pvt. Ltd.|,0,1,0,1,0,0,0,0,0,0,0,0,0,0,0,0,0,0,0,0,0.5
103,Ae Dil Hai Mushkil,Drama/romance,Karan Johar,"Ranbir Kapoor, Aishwarya Rai, Anushka Sharma, Fawad Khan, Imran Abbas, Lisa Haydon",https://en.wikipedia.org/wiki/Ae_Dil_Hai_Mushkil,980000000,(2016-10-28),1476600000,2850,Dharma Productions Pvt. Ltd.|Fox Star Studio India Pvt. Ltd.|,0,1,0,0,1,0,0,0,0,0,0,0,0,0,0,0,0,0,0,0,1.0548489666136724
104,Chaar Sahibzaade: Rise of Banda Singh Bahadur,"Action, drama, animation",Harry Baweja,Harman Baweja,https://en.wikipedia.org/wiki/Chaar_Sahibzaade:_Rise_of_Banda_Singh_Bahadur,1200000000,(2016-11-11),1169700000,3450,Yash Raj Films|,0,1,0,1,0,0,0,0,0,0,0,0,0,0,0,0,0,0,0,0,0.5636363636363636
105,Dongri Ka Raja,Action/thriller,Hadi Ali Abrar,"Gashmeer Mahajani, Reecha Sinha, Ronit Roy, Sachin Suvarna, Ashmit Patel, Sunny Leone",https://en.wikipedia.org/wiki/Dongari_ka_Raja_(2016_film),--,(2016-11-11),7300000,250,Filmy Keeda Productions Pvt. Ltd.|Torque|,0,0,1,1,0,0,0,0,0,0,0,0,0,0,0,0,0,0,0,0,0.0
106,Ishq Junoon,Romantic/Erotic,Sanjay Sharma,"Rajbeer Singh, Akshay Rangshahi, Divya Singh, Raj Aryan",https://en.wikipedia.org/wiki/Ishq_Junoon,--,(2016-11-11),9900000,150,Shantketan Films|Vinr Films|,0,0,0,0,0,0,0,0,0,0,0,0,0,0,0,0,0,0,0,0,0.0
107,Rock On 2,Drama,Sujaat Saudagar,"Farhan Akhtar, Arjun Rampal, Purab Kohli, Shraddha Kapoor, Prachi Desai, Shashank Arora, Shahana Goswami",https://en.wikipedia.org/wiki/Rock_On_2,450000000,(2016-11-11),144100000,1450,Eros International|Excel Entertainment|,0,1,0,0,0,0,0,0,0,0,0,0,0,0,0,0,0,0,0,0,0.9145299145299146
108,Tum Bin 2,Romance,Anubhav Sinha,"Neha Sharma, Aditya Seal, Aashim Gulati",https://en.wikipedia.org/wiki/Tum_Bin_2,160000000,(2016-11-18),56200000,1050,Benaras Mediaworks|T-Series|,0,0,0,0,1,0,0,0,0,0,0,0,0,0,0,0,0,0,0,0,0.2631578947368421
109,Force 2,Action,Abhinay Deo,"John Abraham, Sonakshi Sinha, Tahir Raj Bhasin",https://en.wikipedia.org/wiki/Force_2,410000000,(2016-11-18),442000000,2250,Cinema Capital|JA Entertainment Pvt. Ltd.|Sunshine Pictures Ltd.|Viacom 18 Motion Pictures|,0,0,0,1,0,0,0,0,0,0,0,0,0,0,0,0,0,0,0,0,0.2916666666666667
110,Dear Zindagi,Drama,Gauri Shinde,"Alia Bhatt, Shah Rukh Khan, Ira Dubey, Kunal Kapoor",https://en.wikipedia.org/wiki/Dear_Zindagi,460000000,(2016-11-25),918200000,1150,Dharma Productions Pvt. Ltd.|Hope Productions Pvt. Ltd.|Red Chillies Entertainment|,0,1,0,0,0,0,0,0,0,0,0,0,0,0,0,0,0,0,0,0,1.963970588235294
111,Saansein,Romantic/horror,Rajiv S. Ruia,"Rajneesh Duggal, Sonarika Bhadoria, Hiten Tejwani, Neetha Shetty, Sachi Ruia, Amir Dalvi, Vishal Malhotra",https://en.wikipedia.org/wiki/Saansein,--,(2016-11-25),13500000,550,G.P.A. Productions|,0,0,0,0,0,0,1,0,0,0,0,0,0,0,0,0,0,0,0,0,0.0
112,Moh Maya Money,Crime drama,Munish Bharadwaj,"Ranvir Shorey, Neha Dhupia, Vidhushi Mehra, Ashwat Bhatt",https://en.wikipedia.org/wiki/Moh_Maya_Money,--,(2016-11-25),2600000,225,Delhi Talkies|,0,1,0,0,0,0,0,1,0,0,0,0,0,0,0,0,0,0,0,0,0.0
113,Kahaani 2,Thriller,Sujoy Ghosh,"Vidya Balan, Arjun Rampal, Jugal Hansraj",https://en.wikipedia.org/wiki/Kahaani_2:_Durga_Rani_Singh,330000000,(2016-12-02),451000000,1250,Boundscript Motion Pictures Pvt. Ltd.|Pen India Pvt. Ltd.|,0,0,1,0,0,0,0,0,0,0,0,0,0,0,0,0,0,0,0,0,0.0
114,Befikre,Romance,Aditya Chopra,"Ranveer Singh, Vaani Kapoor",https://en.wikipedia.org/wiki/Befikre,640000000,(2016-12-09),834000000,2150,Yash Raj Films|,0,0,0,0,1,0,0,0,0,0,0,0,0,0,0,0,0,0,0,0,0.5636363636363636
115,Wajah Tum Ho,Romance/drama,Vishal Pandya,"Sana Khan, Sharman Joshi, Gurmeet Choudhary",https://en.wikipedia.org/wiki/Wajah_Tum_Ho,140000000,(2016-12-16),135700000,2000,T-Series|,0,1,0,0,1,0,0,0,0,0,0,0,0,0,0,0,0,0,0,0,0.2631578947368421
116,Dangal,Biopic,Nitesh Tiwari,"Aamir Khan, Sakshi Tanwar, Fatima Sana Shaikh, Sanya Malhotra, Zaira Wasim",https://en.wikipedia.org/wiki/Dangal_(film),1320000000,(2017-08-24),4952500000,4250,Aamir Khan Productions|UTV Motion Pictures|,0,0,0,0,0,1,0,0,0,0,0,0,0,0,0,0,0,0,0,0,1.2962962962962963
