,isComedy,isDrama,isThriller,isAction,isRomance,isBiopic,isHorror,isCrime,isPeriod,isWar,isChildren,isPolitical,isSports,isAdult,isMusical,isAdventure,isPatriotic,isSocial,isNeo-noir,isDark,studio_score,director_score,star_score,spw,screens,budget
0,1,0,0,0,0,0,0,0,0,0,0,0,0,0,0,0,0,0,0,0,0.0,0.0,20,0,1050,170000000
1,1,0,1,0,0,0,0,0,0,0,0,0,0,0,0,0,0,0,0,0,0.2727272727272727,0.0,20,0,1250,370000000
2,0,0,0,0,1,0,0,0,0,0,0,0,0,0,0,0,0,0,0,0,0.2631578947368421,0.0,0,0,1400,210000000
3,0,0,0,0,1,0,0,0,0,0,0,0,0,0,0,0,0,0,0,0,0.4,0.0,0,0,1100,260000000
4,0,1,0,0,0,0,0,0,0,0,0,0,0,0,0,0,0,0,0,0,0.0,0.0,25,0,250,50000000
5,1,0,0,0,0,0,0,0,0,0,0,0,0,0,0,0,0,0,0,0,0.0,0.0,0,0,75,15000000
6,0,1,0,0,0,0,0,0,0,0,0,0,0,0,0,0,0,0,0,0,0.0,0.0,0,0,10,8000000
7,1,0,0,1,0,0,0,0,0,0,0,0,0,0,0,0,0,0,0,0,0.758974358974359,0.0,2100,1,3700,1020000000
8,1,0,0,0,1,0,0,0,0,0,0,0,0,0,0,0,0,0,0,0,0.0,0.0,20,0,260,120000000
9,1,0,0,0,0,0,0,0,0,0,0,0,0,0,0,0,0,0,0,0,0.0,0.0,0,0,275,45000000
10,1,0,0,0,1,0,0,0,0,0,0,0,0,0,0,0,0,0,0,0,0.9621848739495799,0.0,100,0,1300,260000000
11,0,0,1,0,0,0,0,0,0,0,0,0,0,0,0,0,0,0,0,0,0.0,0.0,0,0,400,110000000
12,0,1,0,0,0,0,0,0,0,0,0,0,0,0,0,0,0,1,0,0,0.0,0.0,0,0,275,60000000
13,0,0,0,1,0,0,0,0,0,0,0,0,0,0,0,0,0,0,0,0,0.5636363636363636,1.0,590,0,2700,510000000
14,0,0,0,0,0,0,1,0,0,0,0,0,0,0,0,0,0,0,0,0,0.0,0.0,0,0,1200,160000000
15,0,1,0,0,0,0,0,0,0,0,0,0,0,0,0,0,0,0,0,0,0.0,0.0,0,0,175,20000000
16,0,0,0,0,0,0,0,0,0,0,0,0,0,0,0,0,0,0,0,0,0.0,0.0,0,0,12,2000000
17,0,1,0,0,1,0,0,0,0,0,0,0,0,0,0,0,0,0,0,0,1.18013468013468,0.42857142857142855,0,0,750,250000000
18,0,0,1,0,0,0,0,0,0,0,0,0,0,0,0,0,0,0,0,0,0.0,0.0,0,0,1,8500000
19,0,1,0,0,0,0,0,0,0,0,0,0,0,0,0,0,0,0,0,0,0.0,0.0,0,0,100,17500000
20,1,0,0,0,1,0,0,0,0,0,0,0,0,0,0,0,0,0,0,0,0.4230769230769231,0.0,100,0,1900,430000000
21,0,0,0,1,0,0,0,0,0,0,0,0,0,0,0,0,0,1,0,0,0.0,0.0,0,0,1700,290000000
22,0,1,0,0,1,0,0,0,0,0,0,0,0,0,0,0,0,0,0,0,0.5773809523809523,0.0,30,0,800,230000000
23,1,1,0,0,0,0,0,0,0,0,0,0,0,0,0,0,0,0,0,0,0.7307692307692308,0.0,0,0,850,170000000
24,0,0,0,0,1,0,0,0,0,0,0,0,0,0,0,0,0,0,0,0,0.5636363636363636,0.0,35,0,1100,220000000
25,0,0,0,0,0,0,1,0,0,0,0,0,0,0,0,0,0,0,0,0,0.0,0.0,0,0,225,17500000
26,0,0,1,0,0,0,0,0,0,0,0,0,0,0,0,0,0,0,0,0,0.0,0.0,0,0,150,47500000
27,1,0,0,0,0,0,0,0,0,0,0,0,0,0,0,0,0,0,0,0,0.0,0.0,0,0,150,47500000
28,1,0,0,0,0,0,1,0,0,0,0,0,0,0,0,0,0,0,0,0,0.4090909090909091,0.3333333333333333,0,0,900,160000000
29,0,1,0,0,0,0,0,0,0,0,0,0,0,0,0,0,0,0,0,0,0.0,0.0,0,0,100,40000000
30,0,0,0,0,0,0,1,0,0,0,0,0,0,1,0,0,0,0,0,0,1.0064102564102564,0.0,0,0,2300,190000000
31,0,0,0,1,0,0,0,0,0,0,0,0,0,0,0,0,0,0,0,0,0.35897435897435903,0.0,25,0,1550,39000000
32,1,0,0,0,0,0,0,0,0,0,0,0,0,0,0,0,0,0,0,0,0.0,0.0,30,0,900,150000000
33,0,0,1,0,0,0,0,0,0,0,0,0,0,0,0,0,0,0,0,0,0.0,0.0,0,0,275,90000000
34,0,1,0,0,0,0,0,0,0,0,0,0,0,0,0,0,0,0,0,0,0.1851851851851852,0.0,15,0,1000,280000000
35,0,1,0,0,0,0,0,0,0,0,0,0,0,0,0,0,0,0,0,0,0.0,0.0,0,0,275,60000000
36,1,0,0,0,0,0,0,0,0,0,0,0,0,0,0,0,0,0,0,0,0.4230769230769231,0.5882352941176471,400,0,2400,410000000
37,0,0,0,0,0,0,0,0,0,0,1,0,0,0,0,0,0,0,0,0,0.2631578947368421,0.0,65,0,1500,360000000
38,0,0,0,0,1,0,0,0,0,0,0,0,0,0,0,0,0,0,0,0,1.8566052683699743,0.0,100,0,1900,450000000
39,1,0,0,0,0,0,0,0,0,0,0,0,0,0,0,0,0,0,0,0,0.35897435897435903,0.0,0,0,125,22500000
40,1,0,0,0,1,0,0,0,0,0,0,0,0,0,0,0,0,0,0,0,0.0,0.0,0,0,375,70000000
41,0,1,0,0,0,0,0,0,0,0,0,0,0,0,1,0,0,0,0,0,0.29411764705882354,0.0,20,0,1250,240000000
42,0,1,0,0,0,0,0,0,0,0,0,0,0,0,0,0,0,0,0,0,0.0,0.0,0,0,1600,270000000
43,0,1,1,0,0,0,0,0,0,0,0,0,0,0,0,0,0,0,0,0,0.3333333333333333,0.0,0,0,625,150000000
44,0,1,0,0,1,0,0,0,0,0,0,0,0,0,0,0,0,0,0,0,0.35897435897435903,0.0,0,0,625,110000000
45,0,0,0,0,0,0,0,0,0,0,0,0,0,0,0,0,0,1,0,0,0.0,0.0,0,0,400,55000000
46,0,0,0,1,0,0,0,0,0,0,0,0,0,0,0,0,0,0,0,0,0.0,0.0,0,0,300,47500000
47,0,0,0,0,1,0,0,0,0,0,0,0,0,0,0,0,0,0,0,0,0.0,0.0,0,0,275,45000000
48,0,1,0,0,0,0,0,0,0,0,0,0,0,0,0,0,0,0,0,0,0.3783783783783784,0.0,0,0,625,110000000
49,0,1,0,0,1,0,0,0,0,0,0,0,0,0,0,0,0,0,0,0,0.0,0.0,0,0,50,40000000
50,0,0,0,1,0,0,0,0,0,0,0,0,0,0,0,0,0,0,0,0,0.0,0.0,0,0,900,140000000
51,0,1,0,0,0,0,0,0,0,0,0,0,0,0,0,0,0,0,0,0,0.2916666666666667,0.0,0,0,175,55000000
52,0,0,0,0,0,0,0,0,0,0,0,0,0,1,0,0,0,0,0,0,0.0,0.0,0,0,800,60000000
53,1,0,0,0,0,0,0,0,0,0,0,0,0,0,0,0,0,0,0,0,0.0,0.0,0,0,200,50000000
54,0,0,1,0,0,0,0,0,0,0,0,0,0,0,0,0,0,0,0,0,0.0,0.0,0,0,1050,150000000
55,0,1,0,0,0,0,0,0,0,0,0,0,0,0,0,0,0,0,0,0,0.0,0.0,0,0,275,90000000
56,0,0,0,0,0,0,0,0,0,0,0,0,0,0,0,0,0,0,0,0,0.0,0.0,0,0,300,42500000
57,0,0,0,1,1,0,0,0,0,0,0,0,0,0,0,0,0,0,0,0,0.7727272727272727,0.75,70,0,2200,250000000
58,0,0,0,1,0,0,0,0,0,0,0,0,0,0,0,0,0,0,0,0,0.2307692307692308,0.0,0,0,1250,260000000
59,0,1,0,0,0,0,0,0,0,0,0,0,0,0,0,0,0,0,0,0,0.7192874692874693,0.0,30,0,450,90000000
60,1,0,0,0,0,0,0,0,0,0,0,0,0,0,0,0,0,0,0,0,1.0064102564102564,0.0,0,0,600,65000000
61,1,0,0,0,0,0,0,0,0,0,0,0,0,0,0,0,0,0,0,0,0.4074074074074074,0.0,0,0,450,75000000
62,0,0,1,1,0,0,0,0,0,0,0,0,0,0,0,0,0,0,0,0,0.6307692307692309,0.0,800,0,3300,860000000
63,1,1,0,0,0,0,0,0,0,0,0,0,0,0,0,0,0,0,0,0,0.0,0.0,0,0,950,180000000
64,0,0,0,0,0,0,1,0,0,0,0,0,0,0,0,0,0,0,0,0,0.0,0.0,0,0,600,55000000
65,1,1,0,0,1,0,0,0,0,0,0,0,0,0,0,0,0,0,0,0,0.5635635635635636,0.6,100,0,2800,640000000
66,0,0,1,0,1,0,0,0,0,0,0,0,0,0,0,0,0,0,0,0,0.4230769230769231,0.5454545454545454,100,0,2500,390000000
67,1,1,0,0,0,0,0,0,0,0,0,0,0,0,0,0,0,0,0,0,0.2307692307692308,0.0,0,0,1250,260000000
68,1,0,0,0,1,0,0,0,0,0,0,0,0,0,0,0,0,0,0,0,0.35897435897435903,0.0,0,0,875,28200000
69,1,0,0,0,1,0,0,0,0,0,0,0,0,0,0,0,0,0,0,0,0.6764705882352942,0.0,400,0,1950,330000000
70,0,0,1,0,0,0,0,0,0,0,0,0,0,0,0,0,0,0,0,0,0.2631578947368421,0.0,0,0,1800,150000000
71,0,1,0,0,0,0,0,0,0,0,0,0,0,0,0,0,0,0,0,0,0.0,0.0,0,0,10,4500000
72,0,1,0,1,0,0,0,0,0,0,0,0,0,0,0,0,0,0,0,0,0.0,0.0,0,0,30,5000000
73,1,0,0,0,1,0,0,0,0,0,0,0,0,0,0,0,0,0,0,0,0.0,0.0,0,0,450,70000000
74,0,0,0,0,0,0,1,0,0,0,0,0,0,0,0,0,0,0,0,0,0.4074074074074074,0.0,0,0,600,100000000
75,1,0,0,1,0,0,0,0,0,0,0,0,0,0,0,0,0,0,0,0,1.18013468013468,0.0,2125,1,3800,1400000000
76,1,0,0,0,0,0,0,0,0,0,0,0,0,0,0,0,0,0,0,0,0.4,0.0,800,0,2850,810000000
77,0,0,0,1,0,0,0,0,0,0,0,0,0,0,0,0,0,0,0,0,0.7307692307692308,0.8333333333333334,800,1,3500,1050000000
78,0,0,0,0,1,0,0,0,0,0,0,0,0,0,0,0,0,0,0,0,0.0,0.0,0,0,150,37500000
79,0,0,0,0,0,0,0,0,0,0,0,0,0,0,0,0,0,0,0,0,0.0,0.0,0,0,150,37500000
80,0,1,0,1,0,0,0,0,0,0,0,0,0,0,0,0,0,0,0,0,0.5636363636363636,0.0,0,0,1250,210000000
81,1,0,0,0,0,0,0,0,0,0,0,0,0,0,0,0,0,0,0,0,0.4074074074074074,0.0,0,0,175,35000000
82,1,0,0,1,0,0,0,0,0,0,0,0,0,0,0,0,0,0,0,0,0.4,0.0,0,0,1100,280000000
83,0,0,1,0,0,0,0,0,0,0,0,0,0,0,0,0,0,0,0,0,0.4074074074074074,0.0,50,0,1950,470000000
84,0,1,0,0,0,0,0,0,0,0,0,0,0,0,0,0,0,0,0,0,0.875,0.0,0,0,1900,380000000
85,0,0,0,0,0,0,1,0,0,0,0,0,0,0,0,0,0,0,0,0,0.2631578947368421,0.25806451612903225,0,0,1300,250000000
86,1,1,0,0,0,0,0,0,0,0,0,0,0,0,0,0,0,0,0,0,0.3783783783783784,0.0,100,0,875,290000000
87,1,1,0,0,0,0,0,0,0,0,0,0,0,0,0,0,0,0,0,0,0.5636363636363636,0.0,0,0,1900,320000000
88,1,0,0,0,1,0,0,0,0,0,0,0,0,0,0,0,0,0,0,0,0.4074074074074074,0.0,0,0,1150,230000000
89,0,0,0,0,0,0,1,0,0,0,0,0,0,0,0,0,0,0,0,0,0.0,0.0,0,0,500,85000000
90,0,0,1,0,0,0,0,0,0,0,0,0,0,0,0,0,0,0,0,0,0.0,0.0,0,0,100,35000000
91,0,1,0,1,0,0,0,0,0,0,0,0,0,0,0,0,0,0,0,0,0.0,0.0,0,0,1150,120000000
92,0,0,0,0,0,0,0,0,0,0,0,0,0,0,0,0,0,1,0,0,0.0,0.0,0,0,125,20000000
93,1,0,0,0,0,0,0,0,0,0,0,0,0,0,0,0,0,0,0,0,0.0,0.0,0,0,450,70000000
94,0,0,0,1,0,0,0,0,0,0,0,0,0,0,0,0,0,0,0,0,0.3783783783783784,1.0,500,1,3250,1600000000
95,0,1,0,0,0,0,0,0,0,0,0,0,0,0,0,0,0,0,0,0,0.6801346801346801,0.0,250,1,1250,480000000
96,0,0,0,0,1,0,0,0,0,0,0,0,0,0,0,0,0,0,0,0,0.0,0.0,0,0,350,60000000
97,0,0,0,0,0,0,0,0,0,0,0,1,0,0,0,0,0,0,0,0,0.0,0.0,0,0,450,75000000
98,0,0,0,0,1,0,0,1,0,0,0,0,0,0,0,0,0,0,0,0,0.0,0.0,0,0,825,100000000
99,0,0,0,0,0,0,1,0,0,0,0,0,0,0,0,0,0,0,0,0,0.0,0.0,0,0,1000,110000000
100,1,1,0,0,0,0,0,0,0,0,0,0,0,0,0,0,0,0,0,0,0.0,0.0,0,0,525,77500000
101,1,0,0,1,0,0,0,0,0,0,0,0,0,0,0,0,0,0,0,0,0.6875,1.0,1070,1,3850,1500000000
102,0,1,0,0,0,0,0,0,0,0,0,0,0,0,0,0,0,0,0,0,0.0,0.0,0,0,600,35000000
103,0,1,0,0,0,0,0,0,0,0,0,0,0,0,0,0,0,0,0,0,0.0,0.0,0,0,65,17500000
104,0,1,0,1,0,0,0,0,0,0,0,0,0,0,0,0,0,0,0,0,0.0,0.0,0,0,1250,250000000
105,0,1,0,0,0,0,0,0,0,0,0,0,0,0,0,0,0,0,0,0,0.4545454545454545,0.5833333333333334,0,0,825,180000000
106,0,0,0,0,0,0,0,0,0,0,0,0,0,0,0,0,0,0,0,0,0.0,0.2727272727272727,0,0,150,100000000
107,0,1,0,0,0,0,0,0,0,0,0,0,0,0,0,0,0,0,0,0,0.0,0.0,0,0,12,20000000
108,1,0,0,0,0,0,0,0,0,0,0,0,0,0,0,0,0,0,0,0,0.5714285714285714,0.0,800,0,1800,410000000
109,0,0,0,0,0,0,1,0,0,0,0,0,0,0,0,0,0,0,0,0,0.5714285714285714,0.0,0,0,1800,410000000
110,0,1,0,0,1,0,0,0,0,0,0,0,0,0,0,0,0,0,0,0,0.5636363636363636,0.0,450,0,2300,400000000
111,1,0,0,0,0,0,0,0,0,0,0,0,0,0,0,0,0,0,0,0,0.2916666666666667,0.0,0,0,15,35000000
112,1,0,0,0,1,0,0,0,0,0,0,0,0,0,0,0,0,0,0,0,0.35897435897435903,0.0,100,0,1650,570000000
113,1,0,0,0,1,0,0,0,0,0,0,0,0,0,0,0,0,0,0,0,0.0,0.0,0,0,150,25000000
114,0,1,0,0,0,0,0,0,0,0,0,0,0,0,0,0,0,0,0,0,0.6764705882352942,0.0,85,0,1800,390000000
115,0,1,0,0,0,0,0,0,0,0,0,0,0,0,0,0,0,0,0,0,0.0,0.0,0,0,350,55000000
116,0,0,1,0,0,0,0,0,0,0,0,0,0,0,0,0,0,0,0,0,0.0,0.0,0,0,40,7500000
117,1,0,0,0,0,0,0,0,0,0,0,0,0,0,0,0,0,0,0,0,0.35897435897435903,0.5,800,0,3350,930000000
118,0,1,0,0,0,0,0,0,0,0,0,0,0,0,0,0,0,1,0,0,0.0,0.0,0,0,45,3500000
119,0,1,0,0,0,0,0,0,0,0,0,0,0,0,0,0,0,0,0,0,0.0,0.0,0,0,350,22500000
120,0,0,0,0,0,0,0,0,0,0,0,0,1,0,0,0,0,0,0,0,0.0,0.0,0,0,575,70000000
121,1,0,0,0,1,0,0,0,0,0,0,0,0,0,0,0,0,0,0,0,0.0,0.0,0,0,300,42500000
122,1,0,0,0,0,0,0,0,0,0,0,0,0,0,0,0,0,0,0,0,0.2916666666666667,0.0,0,0,1200,250000000
123,1,1,0,0,0,0,0,0,0,0,0,0,0,0,0,0,0,0,0,0,0.9074074074074074,1.0,1485,1,3600,1220000000
124,0,0,1,1,0,0,0,0,0,0,0,0,0,0,0,0,0,0,0,0,0.35897435897435903,0.0,0,0,3350,930000000
125,0,0,1,0,0,0,0,0,0,0,0,0,0,0,0,0,0,0,0,0,0.2857142857142857,0.0,0,0,350,65000000
126,1,0,0,0,0,0,0,1,0,0,0,0,0,0,0,0,0,0,0,0,0.0,0.0,0,0,225,22500000
127,0,1,0,0,1,0,0,0,0,0,0,0,0,0,0,0,0,0,0,0,1.0548489666136724,0.0,0,0,1400,270000000
128,1,0,0,0,0,0,0,1,0,0,0,0,0,0,0,0,0,0,0,0,0.0,0.0,0,0,650,80000000
129,0,0,1,1,0,0,0,0,0,0,0,0,0,0,0,0,0,0,0,0,0.7777777777777778,0.0,500,1,2550,890000000
130,0,0,0,1,0,0,0,1,0,0,0,0,0,0,0,0,0,0,0,0,1.2430555555555556,0.0,1000,1,3400,1270000000
131,0,1,0,0,0,0,0,0,0,0,0,0,0,0,0,0,0,0,0,0,0.3783783783783784,0.0,800,0,3300,830000000
132,0,1,0,1,0,0,0,0,0,0,0,0,0,0,0,0,0,0,0,0,0.0,0.0,0,0,525,120000000
133,1,0,0,0,0,0,0,0,0,0,0,0,0,0,0,0,0,0,0,0,0.8,0.0,0,0,650,85000000
134,0,0,0,1,0,0,0,0,0,0,0,0,0,0,0,0,0,0,0,0,0.6764705882352942,0.0,0,0,1100,160000000
135,0,1,1,0,0,0,0,0,0,0,0,0,0,0,0,0,0,0,0,0,0.0,0.0,0,0,500,75000000
136,0,1,0,0,0,0,0,0,0,1,0,0,0,0,0,0,0,0,0,0,1.3371212121212122,0.0,350,0,2100,610000000
137,0,0,0,1,0,0,0,0,0,0,0,0,0,0,0,0,0,0,0,0,0.2307692307692308,0.0,0,0,2200,260000000
138,1,0,0,0,1,0,0,0,0,0,0,0,0,0,0,0,0,0,0,0,1.0548489666136724,0.0,400,0,2800,440000000
139,1,0,0,1,0,0,0,0,0,0,0,0,0,0,0,0,0,0,0,0,0.0,0.0,0,0,750,85000000
140,0,0,1,0,0,0,0,0,0,0,0,0,0,0,0,0,0,0,0,0,0.5164835164835165,0.0,0,0,300,50000000
141,0,0,1,0,1,0,0,0,0,0,0,0,0,0,0,0,0,0,0,0,0.0,0.0,0,0,1600,300000000
142,1,0,0,0,1,0,0,0,0,0,0,0,0,0,0,0,0,0,0,0,0.3783783783783784,0.0,0,0,1500,290000000
143,0,1,0,0,0,0,0,0,0,0,0,0,0,0,0,0,0,0,0,0,0.0,0.0,0,0,325,57500000
144,0,0,1,1,0,0,0,0,0,0,0,0,0,0,0,0,0,0,0,0,1.3021978021978022,0.0,800,0,2000,330000000
145,0,0,0,0,0,0,0,0,0,0,0,0,0,0,0,1,0,0,0,0,0.0,0.0,0,0,300,37500000
146,0,1,0,0,0,0,0,0,1,0,0,0,0,0,0,0,0,0,0,0,0.3409090909090909,0.0,0,0,1250,190000000
147,1,1,0,0,0,0,0,0,0,0,0,0,0,0,0,0,0,0,0,0,0.2631578947368421,0.0,0,0,1450,240000000
148,0,0,0,0,0,1,0,0,0,0,0,0,0,0,0,0,0,0,0,0,0.0,0.0,0,0,65,4000000
149,0,1,1,0,0,0,0,0,0,0,0,0,0,0,0,0,0,0,0,0,0.0,0.0,0,0,650,85000000
150,0,0,0,0,1,0,0,0,0,0,0,0,0,0,0,0,0,0,0,0,0.5636363636363636,0.0,0,0,750,220000000
151,0,0,1,0,0,0,0,1,0,0,0,1,0,0,0,0,0,0,0,0,0.6589743589743591,0.0,0,0,1450,360000000
152,0,1,0,0,1,0,0,0,0,0,0,0,0,0,0,0,0,0,0,0,0.4230769230769231,0.5454545454545454,100,0,2400,500000000
153,1,0,0,0,0,0,0,0,0,0,0,0,0,0,0,0,0,0,0,0,0.0,0.0,0,0,200,90000000
154,1,1,0,0,0,0,0,0,0,0,0,0,0,0,0,0,0,0,0,0,0.2631578947368421,0.0,0,0,1050,230000000
155,0,0,0,0,0,1,0,0,0,0,0,0,0,0,0,0,0,0,0,0,0.0,0.0,0,0,1950,390000000
156,0,0,1,0,1,0,0,0,0,0,0,0,0,0,0,0,0,0,0,0,0.2631578947368421,0.0,100,0,1800,470000000
157,1,0,0,0,1,0,0,0,0,0,0,0,0,0,0,0,0,0,0,0,0.0,0.0,0,0,750,130000000
158,1,0,1,0,0,0,0,0,0,0,0,0,0,0,0,0,0,0,0,0,0.0,0.0,0,0,700,150000000
159,0,1,0,1,0,0,0,0,0,0,0,0,0,0,0,0,0,0,0,0,0.0,0.5,2100,1,4400,1350000000
160,0,0,0,0,1,0,0,0,0,0,0,0,0,0,0,0,0,0,0,0,0.4,0.3333333333333333,0,0,725,140000000
161,0,1,1,0,0,0,0,0,0,0,0,0,0,0,0,0,0,0,0,0,0.4,0.0,0,0,1200,370000000
162,1,0,0,0,0,0,0,0,0,0,0,0,0,0,0,0,0,0,0,0,0.0,0.0,0,0,1350,280000000
163,1,0,0,0,1,0,0,0,0,0,0,0,0,0,0,0,0,0,0,0,0.0,0.5,300,0,1750,1310000000
164,0,1,0,0,0,0,0,0,0,0,0,0,0,0,0,0,0,0,0,0,0.8500000000000001,0.0,0,0,500,70000000
165,0,0,0,1,1,0,0,0,0,0,0,0,0,0,0,0,0,0,0,0,0.35897435897435903,0.75,0,0,2900,410000000
166,0,1,0,1,0,0,0,0,1,0,0,0,0,0,0,0,0,0,0,0,0.0,0.0,0,0,625,9500000
167,0,1,0,0,0,0,0,0,0,0,0,0,0,0,0,0,0,0,0,0,0.0,0.38461538461538464,0,0,875,120000000
168,1,0,0,0,1,0,0,0,0,0,0,0,0,0,0,0,0,0,0,0,0.0,0.5,100,0,2300,650000000
169,0,0,0,0,1,0,0,0,0,0,0,0,0,0,0,0,0,0,0,0,0.6875,0.42857142857142855,1000,0,3200,1190000000
170,1,1,0,0,0,0,0,0,0,0,0,0,0,0,0,0,0,0,0,0,0.8630952380952381,0.0,800,1,2950,750000000
171,0,1,0,0,0,0,0,0,0,0,0,0,0,0,0,0,1,0,0,0,0.0,0.0,0,0,100,22500000
172,0,1,0,0,0,0,0,0,0,0,0,0,0,0,0,0,0,0,0,0,0.0,0.0,0,0,95,47500000
173,1,0,0,0,1,0,0,0,0,0,0,0,0,0,0,0,0,0,0,0,0.0,0.0,0,0,1000,200000000
174,0,0,0,1,1,0,0,0,0,0,0,0,0,0,0,0,0,0,0,0,0.3783783783783784,0.0,100,0,1900,670000000
175,0,0,0,1,0,0,0,0,0,0,0,0,0,0,0,0,0,0,0,0,0.0,0.0,0,0,950,100000000
176,0,1,0,0,0,0,0,0,0,0,0,0,0,0,0,0,0,0,0,0,0.2631578947368421,0.0,0,0,950,100000000
177,0,1,0,0,0,0,0,0,0,0,0,0,0,0,1,0,0,0,0,0,0.5636363636363636,0.0,0,0,800,210000000
178,0,0,0,1,0,0,0,1,0,0,0,0,0,0,0,0,0,0,0,0,0.2631578947368421,0.0,800,0,2850,900000000
179,1,1,0,0,0,0,0,0,0,0,0,0,0,0,0,0,0,0,0,0,1.0732600732600734,0.0,0,0,1300,250000000
180,1,0,0,0,0,0,0,0,0,0,0,0,0,0,0,0,0,0,0,0,0.0,0.0,0,0,1300,270000000
181,0,1,0,0,0,0,0,1,0,0,0,0,0,0,0,0,0,0,0,0,0.0,0.0,0,0,1150,210000000
182,0,1,0,0,0,0,0,0,0,0,0,0,0,0,0,0,0,0,0,0,0.2631578947368421,0.0,0,0,1550,280000000
183,0,1,0,0,0,0,0,0,0,0,0,0,0,0,0,0,0,0,0,0,0.2916666666666667,0.0,100,0,1250,300000000
184,1,1,0,0,0,0,0,0,0,0,0,0,0,0,0,0,0,0,0,0,0.0,0.0,0,0,725,110000000
185,0,1,0,1,0,0,0,0,0,0,0,0,0,0,0,0,0,0,0,0,0.2631578947368421,0.0,0,0,2000,310000000
186,0,1,1,0,0,0,0,0,0,0,0,0,0,0,0,0,0,0,0,0,0.35897435897435903,0.0,0,0,1100,290000000
187,0,0,0,0,0,0,0,0,0,0,0,0,0,0,0,0,0,0,0,0,0.0,0.0,0,0,1150,180000000
188,1,0,0,1,0,0,0,0,0,0,0,0,0,0,0,0,0,0,0,0,1.1511056511056508,0.5882352941176471,400,1,3500,630000000
189,1,0,0,0,0,0,0,0,0,0,0,0,0,0,0,0,0,0,0,0,0.2631578947368421,0.0,100,0,1550,310000000
190,0,1,0,0,0,0,0,0,0,0,0,0,0,0,1,0,0,0,0,0,0.8888888888888888,0.0,1350,1,1750,450000000
191,1,0,0,0,0,0,0,0,0,0,0,0,0,0,0,0,0,0,0,0,0.2307692307692308,0.8333333333333334,800,1,3300,1420000000
192,0,0,1,0,0,0,0,0,0,0,0,0,0,0,0,0,0,0,0,0,1.3639705882352942,0.0,100,0,1100,290000000
193,0,1,0,0,1,0,0,0,0,0,0,0,0,0,0,0,0,0,0,0,0.0,0.0,0,0,975,130000000
194,1,0,0,0,1,0,0,0,0,0,0,0,0,0,0,0,0,0,0,0,0.0,0.0,0,0,900,170000000
195,0,0,1,0,0,0,0,0,0,0,0,0,0,0,0,0,0,0,0,0,0.0,0.0,0,0,1300,90000000
196,1,0,0,0,0,0,0,0,0,0,0,0,0,0,0,0,0,1,0,0,0.2631578947368421,0.0,0,0,1200,200000000
197,0,0,1,0,0,0,0,0,0,0,0,0,0,0,0,0,0,0,0,0,0.0,0.0,0,0,1000,85000000
198,0,1,0,0,0,0,0,0,0,0,0,0,0,0,0,0,0,0,0,0,0.0,0.0,0,0,300,27500000
199,0,0,1,0,0,0,0,0,0,0,0,0,0,0,0,0,0,0,0,0,0.0,0.0,0,0,1050,110000000
200,1,0,0,0,0,0,0,0,0,0,0,0,0,0,0,0,0,0,0,0,0.0,0.0,0,0,1550,400000000
201,1,0,0,0,0,0,0,0,0,0,0,0,0,0,0,0,0,0,0,0,0.5555555555555556,0.0,0,0,1500,290000000
202,0,0,1,0,0,0,0,1,0,0,0,0,0,0,0,0,0,0,0,0,0.0,0.0,0,0,250,120000000
203,0,1,0,1,0,0,0,0,0,0,0,0,0,0,0,0,0,0,0,0,0.5636363636363636,1.0,2100,1,4600,2100000000
