,isComedy,isDrama,isThriller,isAction,isRomance,isBiopic,isHorror,isCrime,isPeriod,isWar,isChildren,isPolitical,isSports,isAdult,isMusical,isAdventure,isPatriotic,isSocial,isNoe-noir,isDark,studio_score,director_score,star_score,spw,screens,budget,Name
0,0,0,0,0,0,0,0,0,0,0,0,0,0,0,0,0,0,0,1,0,0.0,0.0,0,0,250,120000000,Monsoon Shootout
1,0,0,1,0,0,0,0,0,0,0,0,0,0,0,0,0,0,0,0,0,0.7307692309999999,0.0,300,0,1550,360000000,Wazir
2,0,1,0,0,0,0,0,0,0,0,0,0,0,0,0,0,0,0,0,0,0.0,0.0,0,0,450,120000000,Chalk n Duster
3,0,0,1,0,0,0,0,0,0,1,0,0,0,0,0,0,0,0,0,0,0.834586466,0.0,800,1,1950,680000000,Airlift
4,1,0,0,0,0,0,0,0,0,0,0,0,0,1,0,0,0,0,0,0,0.583333333,0.0,0,1,2050,260000000,Kyaa Kool Hain Hum 3
5,0,0,0,0,0,0,0,0,0,0,0,0,1,0,0,0,0,0,0,0,0.4074074070000001,0.0,0,0,700,200000000,Saala Khadoos
6,1,0,0,0,0,0,0,0,0,0,0,0,0,1,0,0,0,0,0,0,0.0,0.0,0,0,1850,300000000,Mastizaade
7,0,0,0,0,1,0,0,0,0,0,0,0,0,0,0,0,0,0,0,0,0.35897435899999997,0.0,0,0,950,190000000,Sanam Teri Kasam
8,0,1,0,1,0,0,0,0,0,0,0,0,0,0,0,0,0,0,0,0,0.0,0.0,0,0,2300,500000000,Ghayal Once Again
9,0,1,0,0,1,0,0,0,0,0,0,0,0,0,0,0,0,0,0,0,0.4074074070000001,0.0,0,0,1500,710000000,Fitoor
10,0,0,0,0,1,0,0,0,0,0,0,0,0,0,0,0,0,0,0,0,0.263157895,0.0,0,0,2000,270000000,Sanam Re
11,0,0,0,0,1,0,0,0,0,0,0,0,0,0,0,0,0,0,0,0,0.0,0.0,0,0,900,220000000,LoveShhuda
12,0,1,0,0,0,1,0,0,0,0,0,0,0,0,0,0,0,0,0,0,0.37837837799999996,0.0,0,0,1000,280000000,Neerja
13,0,1,0,0,0,1,0,0,0,0,0,0,0,0,0,0,0,0,0,0,0.35897435899999997,0.0,0,0,450,110000000,Aligarh
14,1,0,0,0,0,0,0,0,0,0,0,0,0,0,0,0,0,0,0,0,0.0,0.0,0,0,850,130000000,Tere Bin Laden: Dead or Alive
15,0,1,0,0,0,0,0,0,0,0,0,0,0,0,0,0,0,0,0,0,0.0,0.0,0,0,350,80000000,Zubaan
16,0,1,0,1,0,0,0,0,0,0,0,0,0,0,0,0,0,0,0,0,0.26666666699999997,0.272727273,0,0,2500,330000000,Jai Gangaajal
17,0,0,1,1,1,0,0,0,0,0,0,0,0,0,0,0,0,0,0,0,0.263157895,0.0,0,0,1150,150000000,Teraa Surroor
18,0,1,1,0,0,0,0,0,0,0,0,0,0,0,0,0,0,0,0,0,0.0,0.0,0,0,975,130000000,OK Mein Dhokhe
19,1,1,0,0,0,0,0,0,0,0,0,0,0,0,0,0,0,0,0,0,1.054848967,0.0,100,0,1500,380000000,Kapoor & Sons
20,0,0,0,1,0,0,0,0,0,0,0,0,0,0,0,0,0,0,0,0,0.0,0.0,200,0,1900,430000000,Rocky Handsome
21,1,0,0,0,1,0,0,0,0,0,0,0,0,0,0,0,0,0,0,0,0.958974359,0.6,100,0,1600,350000000,Ki & Ka
22,0,0,1,0,0,0,0,0,0,0,0,0,0,0,0,0,0,0,0,0,0.604066986,0.258064516,0,0,1100,100000000,Love Games
23,0,1,1,1,0,0,0,0,0,0,0,0,0,0,0,0,0,0,0,0,0.563636364,0.75,1000,0,3450,1200000000,Fan
24,1,1,0,0,0,0,0,0,0,0,0,0,0,0,0,0,0,0,0,0,0.563636364,0.0,0,0,3450,1200000000,Nil Battey Sannata
25,0,0,0,1,0,0,0,0,0,0,0,0,0,0,0,0,0,0,0,0,0.0,0.0,0,0,825,100000000,Laal Rang
26,1,0,0,0,0,0,0,0,0,0,0,0,0,0,0,0,0,0,0,0,0.291666667,0.0,0,0,550,95000000,Santa Banta Pvt Ltd
27,0,0,0,1,0,0,0,0,0,0,0,0,0,0,0,0,0,0,0,0,1.18013468,0.75,0,0,2750,370000000,Baaghi
28,0,0,1,0,0,0,0,0,0,0,0,0,0,0,0,0,0,0,0,0,0.0,0.0,0,0,1050,170000000,One Night Stand
29,0,0,1,0,0,0,0,0,0,0,0,0,0,0,0,0,0,0,0,0,0.37837837799999996,0.0,0,0,500,90000000,Traffic
30,0,0,0,0,0,0,1,0,0,0,0,0,0,0,0,0,0,0,0,0,0.23076923100000002,0.0,0,0,1300,210000000,1920 London
31,0,0,0,0,0,1,0,0,0,0,0,0,0,0,0,0,0,0,0,0,0.423076923,0.0,0,0,2100,400000000,Azhar
32,1,0,0,0,0,0,0,0,0,0,0,0,0,0,0,0,0,0,0,0,0.563636364,0.0,0,0,2150,640000000,Kaptaan
33,0,0,0,0,0,1,0,0,0,0,0,0,0,0,0,0,0,0,0,0,0.44834308,0.0,0,0,1400,320000000,Sarbjit
34,0,0,1,0,0,0,0,0,0,0,0,0,0,0,0,0,0,0,0,0,0.35897435899999997,0.0,0,0,625,85000000,Phobia
35,0,0,0,1,0,0,0,0,0,0,0,0,0,0,0,0,0,0,0,0,0.0,0.0,0,0,1200,140000000,Veerappan
36,0,1,0,0,0,0,0,0,0,0,0,0,0,0,0,0,0,0,0,0,0.0,0.0,0,0,275,65000000,Waiting
37,1,0,0,0,0,0,0,0,0,0,0,0,0,0,0,0,0,0,0,0,1.131701632,0.0,800,0,3650,970000000,Housefull 3
38,0,0,0,0,0,0,0,0,0,0,0,0,0,0,0,0,0,0,0,0,0.0,0.0,0,0,600,110000000,Do Lafzon Ki Kahani
39,0,0,1,0,0,0,0,0,0,0,0,0,0,0,0,0,0,0,0,0,0.23076923100000002,0.0,0,0,1150,340000000,Te3n
40,0,0,0,0,0,0,0,1,0,0,0,0,0,0,0,0,0,0,0,0,0.708791209,0.0,250,0,2200,470000000,Udta Punjab
41,0,0,0,0,1,0,0,0,0,0,0,0,0,0,0,0,0,0,0,0,0.0,0.0,0,0,100,57500000,Luv U Alia
42,0,0,1,0,0,0,0,1,0,0,0,0,0,0,0,0,0,0,0,0,0.516483516,0.0,0,0,700,100000000,Raman Raghav 2.0
43,0,0,0,0,1,0,0,0,0,0,0,0,0,0,0,0,0,0,0,0,0.263157895,0.0,0,0,800,120000000,Junooniyat
44,0,1,0,0,0,0,0,0,0,0,0,0,1,0,0,0,0,0,0,0,0.563636364,1.0,2100,1,4350,1450000000,Sultan
45,1,0,0,0,0,0,0,0,0,0,0,0,0,0,0,0,0,0,0,0,0.563636364,0.0,0,1,3450,1200000000,Brahman Naman
46,1,0,0,0,0,0,0,0,0,0,0,0,0,0,0,0,0,0,0,0,1.037878788,0.583333333,0,0,1700,390000000,Great Grand Masti
47,0,0,0,1,0,0,0,0,0,0,0,0,0,0,0,0,0,0,0,0,0.563636364,0.0,0,0,3450,1200000000,Kabali
48,0,0,0,1,0,0,0,0,0,0,0,0,0,0,0,0,0,0,0,0,1.131701632,0.0,600,0,3000,610000000,Dishoom
49,0,1,0,0,0,0,0,0,0,0,0,0,0,0,0,0,0,0,0,0,0.4074074070000001,0.0,500,1,2700,1380000000,Mohenjo Daro
50,0,0,1,0,1,0,0,0,0,0,0,0,0,0,0,0,0,0,0,0,0.571428571,0.0,800,1,2350,730000000,Rustom
51,1,0,0,0,0,0,0,0,0,0,0,0,0,0,0,0,0,0,0,0,1.073260073,0.0,0,0,1000,200000000,Happy Bhaag Jayegi
52,1,0,0,1,0,0,0,0,0,0,0,0,0,0,0,0,0,0,0,0,0.423076923,0.75,0,0,2650,550000000,A Flying Jatt
53,0,1,0,1,0,0,0,0,0,0,0,0,0,0,0,0,0,0,0,0,0.37837837799999996,0.0,0,0,2400,320000000,Akira
54,0,1,0,0,1,0,0,0,0,0,0,0,0,0,0,0,0,0,0,0,1.591000503,0.0,100,0,1950,530000000,Baar Baar Dekho
55,1,0,0,0,0,0,0,0,0,0,0,0,1,0,0,0,0,0,0,0,0.4,0.0,0,0,1200,230000000,Freaky Ali
56,0,0,0,0,0,0,1,0,0,0,0,0,0,0,0,0,0,0,0,0,0.604066986,0.258064516,0,0,1700,310000000,Raaz Reboot
57,0,1,0,0,0,0,0,0,0,0,0,0,0,0,0,0,0,0,0,0,0.8,0.0,0,0,1000,290000000,Pink
58,0,1,0,0,0,0,0,0,0,0,0,0,0,0,0,0,0,0,0,0,0.5,0.0,0,0,275,240000000,Parched
59,0,0,0,0,0,1,0,0,0,0,0,0,1,0,0,0,0,0,0,0,0.878378378,0.8,100,1,3900,1100000000,M.S. Dhoni: The Untold Story
60,0,1,0,0,1,0,0,0,0,0,0,0,0,0,0,0,0,0,0,0,0.0,0.0,0,0,1750,630000000,Mirzya
61,0,1,0,0,0,0,0,0,0,0,0,0,0,0,0,1,0,0,0,0,0.0,0.0,0,0,450,180000000,MSG: The Warrior Lion Heart
62,1,0,0,0,0,0,0,0,0,0,0,0,0,0,0,0,0,0,0,0,0.185185185,0.0,0,0,875,110000000,Tutak Tutak Tutiya
63,1,0,0,1,0,0,0,0,0,0,0,0,0,0,0,1,0,0,0,0,0.291666667,0.0,0,0,475,42500000,Motu Patlu: King Of Kings
64,0,1,0,1,0,0,0,0,0,0,0,0,0,0,0,0,0,0,0,0,0.5,0.0,800,1,2950,1030000000,Shivaay
65,0,1,0,0,1,0,0,0,0,0,0,0,0,0,0,0,0,0,0,0,1.054848967,1.0,300,1,2850,980000000,Ae Dil Hai Mushkil
66,0,1,0,1,0,0,0,0,0,0,0,0,0,0,0,0,0,0,0,0,0.563636364,0.272727273,0,0,3450,1200000000,Chaar Sahibzaade: Rise of Banda Singh Bahadur
67,0,1,0,0,0,0,0,0,0,0,0,0,0,0,0,0,0,0,0,0,0.914529915,0.0,100,0,1450,450000000,Rock On 2
68,0,0,0,0,1,0,0,0,0,0,0,0,0,0,0,0,0,0,0,0,0.263157895,0.428571429,0,0,1050,160000000,Tum Bin 2
69,0,0,0,1,0,0,0,0,0,0,0,0,0,0,0,0,0,0,0,0,0.291666667,0.0,200,0,2250,410000000,Force 2
70,0,1,0,0,0,0,0,0,0,0,0,0,0,0,0,0,0,0,0,0,1.963970588,1.0,1000,0,1150,460000000,Dear Zindagi
71,0,0,1,0,0,0,0,0,0,0,0,0,0,0,0,0,0,0,0,0,0.0,0.0,0,0,1250,330000000,Kahaani 2
72,0,0,0,0,1,0,0,0,0,0,0,0,0,0,0,0,0,0,0,0,0.563636364,0.75,450,0,2150,640000000,Befikre
73,0,1,0,0,1,0,0,0,0,0,0,0,0,0,0,0,0,0,0,0,0.263157895,0.0,0,0,2000,140000000,Wajah Tum Ho
74,0,0,0,0,0,1,0,0,0,0,0,0,0,0,0,0,0,0,0,0,1.296296296,0.0,1350,1,4250,1320000000,Dangal
